
<svg version="1.1" id="Layer_1" xmlns="http://www.w3.org/2000/svg" xmlns:xlink="http://www.w3.org/1999/xlink" x="0px" y="0px"
	 width="800px" height="448px" viewBox="0 0 800 448" enable-background="new 0 0 800 448" xml:space="preserve">
<g>
</g>
<g>
</g>
<g>
</g>
<g>
	<text transform="matrix(1 0 0 1 4.0386 431.0016)" fill="#797979" font-family="'CuratorRegular'" font-size="15px">SOURCE: IMF</text>
</g>
<g>
	<line fill="none" stroke="#000000" stroke-miterlimit="10" x1="36.6" y1="358" x2="788.6" y2="358"/>
	<g>
		<g>
			<line fill="none" stroke="#000000" stroke-miterlimit="10" x1="36.6" y1="366" x2="36.6" y2="358"/>
			<line fill="none" stroke="#000000" stroke-miterlimit="10" x1="89.1" y1="366" x2="89.1" y2="358"/>
			<line fill="none" stroke="#000000" stroke-miterlimit="10" x1="141.5" y1="366" x2="141.5" y2="358"/>
			<line fill="none" stroke="#000000" stroke-miterlimit="10" x1="194" y1="366" x2="194" y2="358"/>
			<line fill="none" stroke="#000000" stroke-miterlimit="10" x1="246.5" y1="366" x2="246.5" y2="358"/>
			<line fill="none" stroke="#000000" stroke-miterlimit="10" x1="298.9" y1="366" x2="298.9" y2="358"/>
			<line fill="none" stroke="#000000" stroke-miterlimit="10" x1="351.4" y1="366" x2="351.4" y2="358"/>
			<line fill="none" stroke="#000000" stroke-miterlimit="10" x1="403.9" y1="366" x2="403.9" y2="358"/>
			<line fill="none" stroke="#000000" stroke-miterlimit="10" x1="456.3" y1="366" x2="456.3" y2="358"/>
			<line fill="none" stroke="#000000" stroke-miterlimit="10" x1="508.8" y1="366" x2="508.8" y2="358"/>
			<line fill="none" stroke="#000000" stroke-miterlimit="10" x1="561.3" y1="366" x2="561.3" y2="358"/>
			<line fill="none" stroke="#000000" stroke-miterlimit="10" x1="613.7" y1="366" x2="613.7" y2="358"/>
			<line fill="none" stroke="#000000" stroke-miterlimit="10" x1="666.2" y1="366" x2="666.2" y2="358"/>
			<line fill="none" stroke="#000000" stroke-miterlimit="10" x1="718.7" y1="366" x2="718.7" y2="358"/>
			<line fill="none" stroke="#000000" stroke-miterlimit="10" x1="771.1" y1="366" x2="771.1" y2="358"/>
		</g>
		<g>
		</g>
	</g>
</g>
<g>
	<g>
		<g>
			<text transform="matrix(1 0 0 1 14.2193 360.1797)" fill="#373737" font-family="'CuratorRegular'" font-size="17.3453px">0</text>
			<text transform="matrix(1 0 0 1 15.295 280.6797)" fill="#373737" font-family="'CuratorRegular'" font-size="17.3453px">5</text>
			<text transform="matrix(1 0 0 1 8.1656 201.1797)" fill="#373737" font-family="'CuratorRegular'" font-size="17.3453px">10</text>
			<text transform="matrix(1 0 0 1 9.2413 121.6797)" fill="#373737" font-family="'CuratorRegular'" font-size="17.3453px">15</text>
			<text transform="matrix(1 0 0 1 7.0199 42.1797)" fill="#373737" font-family="'CuratorRegular'" font-size="17.3453px">20%</text>
		</g>
	</g>
	<g>
		<g>
			<line fill="none" stroke="#000000" stroke-miterlimit="10" x1="36.6" y1="358" x2="55.4" y2="358"/>
			<line fill="none" stroke="#A3A3A3" stroke-miterlimit="10" stroke-dasharray="1,2" x1="36.6" y1="278.5" x2="788.6" y2="278.5"/>
			<line fill="none" stroke="#A3A3A3" stroke-miterlimit="10" stroke-dasharray="1,2" x1="36.6" y1="199" x2="788.6" y2="199"/>
			<line fill="none" stroke="#A3A3A3" stroke-miterlimit="10" stroke-dasharray="1,2" x1="36.6" y1="119.5" x2="788.6" y2="119.5"/>
			<line fill="none" stroke="#A3A3A3" stroke-miterlimit="10" stroke-dasharray="1,2" x1="50" y1="40" x2="788.6" y2="40"/>
		</g>
		<g>
		</g>
	</g>
</g>
<g>
	<g>
		<g>
			<g class="animate-line">
				<path class="p" fill="none" stroke="#EF4123" stroke-width="2" stroke-linecap="round" stroke-miterlimit="10" d="M38.2,232.4l17.5,44.5
					l17.5-62l17.5-28.6l17.5-70l17.5,27l17.5,73.1l17.5-44.5l17.5,6.4l17.5,112.9l17.5,4.8l17.5-84.3l17.5-81.1l17.5,6.4l17.5,12.7
					l17.5,33.4l17.5,17.5l17.5,11.1L353,234l17.5,3.2l17.5-12.7l17.5,1.6l17.5-12.7l17.5-14.3l17.5-1.6l17.5-19.1l17.5-22.3
					l17.5-23.9l17.5,73.1l17.5,6.4l17.5-22.3l17.5,17.5l17.5,25.4l17.5,1.6l17.5,7.9l17.5,6.4l17.5,3.2l17.5,1.6l17.5,6.4l17.5,3.2
					l17.5,1.6l17.5,1.6l17.5,1.6c0,0,1.8,0,2.2-0.3"/>
			</g>
		</g>
	</g>
</g>
<g>
	<text transform="matrix(1 0 0 1 18.0601 385.5056)" font-family="'CuratorRegular'" font-size="17.3453px">1980</text>
	<text transform="matrix(1 0 0 1 69.0385 385.5056)" font-family="'CuratorRegular'" font-size="17.3453px">1983</text>
	<text transform="matrix(1 0 0 1 122.3019 385.5056)" font-family="'CuratorRegular'" font-size="17.3453px">1986</text>
	<text transform="matrix(1 0 0 1 172.2271 385.5056)" font-family="'CuratorRegular'" font-size="17.3453px">1989</text>
	<text transform="matrix(1 0 0 1 225.3136 385.5056)" font-family="'CuratorRegular'" font-size="17.3453px">1992</text>
	<text transform="matrix(1 0 0 1 278.5328 385.5056)" font-family="'CuratorRegular'" font-size="17.3453px">1995</text>
	<text transform="matrix(1 0 0 1 328.6515 385.5056)" font-family="'CuratorRegular'" font-size="17.3453px">1998</text>
	<text transform="matrix(1 0 0 1 380.8053 385.5056)" font-family="'CuratorRegular'" font-size="17.3453px">2001</text>
	<text transform="matrix(1 0 0 1 439.0468 385.5056)" font-family="'CuratorRegular'" font-size="17.3453px">2004</text>
	<text transform="matrix(1 0 0 1 489.3008 385.5056)" font-family="'CuratorRegular'" font-size="17.3453px">2007</text>
	<text transform="matrix(1 0 0 1 540.2617 385.5056)" font-family="'CuratorRegular'" font-size="17.3453px">2010</text>
	<text transform="matrix(1 0 0 1 591.6865 385.5056)" font-family="'CuratorRegular'" font-size="17.3453px">2013</text>
	<text transform="matrix(1 0 0 1 642.4956 385.5056)" font-family="'CuratorRegular'" font-size="17.3453px">2016</text>
	<text transform="matrix(1 0 0 1 696.0479 385.5056)" font-family="'CuratorRegular'" font-size="17.3453px">2019</text>
	<text transform="matrix(1 0 0 1 752.1204 385.5056)" font-family="'CuratorRegular'" font-size="17.3453px">2022</text>
</g>
<line fill="none" stroke="#FFFFFF" stroke-width="2" stroke-linecap="round" stroke-miterlimit="10" x1="704.1" y1="250.2" x2="704.1" y2="272.9"/>
<line fill="none" stroke="#FFFFFF" stroke-width="2" stroke-linecap="round" stroke-miterlimit="10" x1="710.1" y1="250.2" x2="710.1" y2="272.9"/>
<line fill="none" stroke="#FFFFFF" stroke-width="2" stroke-linecap="round" stroke-miterlimit="10" x1="716.1" y1="250.2" x2="716.1" y2="272.9"/>
<line fill="none" stroke="#FFFFFF" stroke-width="2" stroke-linecap="round" stroke-miterlimit="10" x1="722" y1="250.2" x2="722" y2="272.9"/>
<line fill="none" stroke="#FFFFFF" stroke-width="2" stroke-linecap="round" stroke-miterlimit="10" x1="728" y1="250.2" x2="728" y2="272.9"/>
<line fill="none" stroke="#FFFFFF" stroke-width="2" stroke-linecap="round" stroke-miterlimit="10" x1="734" y1="250.2" x2="734" y2="272.9"/>
<line fill="none" stroke="#FFFFFF" stroke-width="2" stroke-linecap="round" stroke-miterlimit="10" x1="740" y1="250.2" x2="740" y2="272.9"/>
<line fill="none" stroke="#FFFFFF" stroke-width="2" stroke-linecap="round" stroke-miterlimit="10" x1="746" y1="250.2" x2="746" y2="272.9"/>
<line fill="none" stroke="#FFFFFF" stroke-width="2" stroke-linecap="round" stroke-miterlimit="10" x1="752" y1="250.2" x2="752" y2="272.9"/>
<line fill="none" stroke="#FFFFFF" stroke-width="2" stroke-linecap="round" stroke-miterlimit="10" x1="758" y1="250.2" x2="758" y2="272.9"/>
<line fill="none" stroke="#FFFFFF" stroke-width="2" stroke-linecap="round" stroke-miterlimit="10" x1="764" y1="250.2" x2="764" y2="272.9"/>
<line fill="none" stroke="#FFFFFF" stroke-width="2" stroke-linecap="round" stroke-miterlimit="10" x1="770" y1="250.2" x2="770" y2="272.9"/>
<line fill="none" stroke="#FFFFFF" stroke-width="2" stroke-linecap="round" stroke-miterlimit="10" x1="776" y1="250.2" x2="776" y2="272.9"/>
</svg>
