<svg version="1.1" id="Layer_1" xmlns="http://www.w3.org/2000/svg" xmlns:xlink="http://www.w3.org/1999/xlink" x="0px" y="0px"
	 width="800px" height="428px" viewBox="0 0 800 428" enable-background="new 0 0 800 428" xml:space="preserve">
<g>
	<line fill="none" stroke="#333333" stroke-miterlimit="10" x1="59.6" y1="340.3" x2="786.1" y2="340.3"/>
	<g>
		<g>
			<line fill="none" stroke="#333333" stroke-miterlimit="10" x1="70.9" y1="348" x2="70.9" y2="340.3"/>
			<line fill="none" stroke="#333333" stroke-miterlimit="10" x1="137" y1="348" x2="137" y2="340.3"/>
			<line fill="none" stroke="#333333" stroke-miterlimit="10" x1="203" y1="348" x2="203" y2="340.3"/>
			<line fill="none" stroke="#333333" stroke-miterlimit="10" x1="269" y1="348" x2="269" y2="340.3"/>
			<line fill="none" stroke="#333333" stroke-miterlimit="10" x1="335.1" y1="348" x2="335.1" y2="340.3"/>
			<line fill="none" stroke="#333333" stroke-miterlimit="10" x1="401.1" y1="348" x2="401.1" y2="340.3"/>
			<line fill="none" stroke="#333333" stroke-miterlimit="10" x1="467.2" y1="348" x2="467.2" y2="340.3"/>
			<line fill="none" stroke="#333333" stroke-miterlimit="10" x1="533.2" y1="348" x2="533.2" y2="340.3"/>
			<line fill="none" stroke="#333333" stroke-miterlimit="10" x1="599.3" y1="348" x2="599.3" y2="340.3"/>
			<line fill="none" stroke="#333333" stroke-miterlimit="10" x1="665.3" y1="348" x2="665.3" y2="340.3"/>
			<line fill="none" stroke="#333333" stroke-miterlimit="10" x1="731.4" y1="348" x2="731.4" y2="340.3"/>
			<line fill="none" stroke="#333333" stroke-miterlimit="10" x1="775.4" y1="348" x2="775.4" y2="340.3"/>
		</g>
	</g>
</g>
<g>
	<g>
		<g>
			<text transform="matrix(1 0 0 1 27.3501 339.4843)" fill="#797979" font-family="'CuratorRegular'" font-size="17.3453px">0</text>
			<text transform="matrix(1 0 0 1 18.2266 277.994)" fill="#797979" font-family="'CuratorRegular'" font-size="17.3453px">20</text>
			<text transform="matrix(1 0 0 1 17.0991 216.5038)" fill="#797979" font-family="'CuratorRegular'" font-size="17.3453px">40</text>
			<text transform="matrix(1 0 0 1 17.1685 155.0136)" fill="#797979" font-family="'CuratorRegular'" font-size="17.3453px">60</text>
			<text transform="matrix(1 0 0 1 17.0122 93.5233)" fill="#797979" font-family="'CuratorRegular'" font-size="17.3453px">80</text>
			<text transform="matrix(1 0 0 1 10.6465 32.0331)" fill="#797979" font-family="'CuratorRegular'" font-size="17.3453px">100</text>
			<text transform="matrix(1 0 0 1 43.4977 32.0331)" fill="#797979" font-family="'CuratorRegular'" font-size="17.3453px">% of population</text>
			<text transform="matrix(1 0 0 1 7.2446 411.0331)" fill="#797979" font-family="'CuratorRegular'" font-size="15px">SOURCE: WORLD BANK</text>
		</g>
	</g>
	<g>
		<g>
			<line fill="none" stroke="#CCCCCC" stroke-miterlimit="10" stroke-dasharray="1,2" x1="38" y1="278.8" x2="786.1" y2="278.8"/>
			<line fill="none" stroke="#CCCCCC" stroke-miterlimit="10" stroke-dasharray="1,2" x1="38" y1="217.3" x2="786.1" y2="217.3"/>
			<line fill="none" stroke="#CCCCCC" stroke-miterlimit="10" stroke-dasharray="1,2" x1="38" y1="155.9" x2="786.1" y2="155.9"/>
			<line fill="none" stroke="#CCCCCC" stroke-miterlimit="10" stroke-dasharray="1,2" x1="38" y1="94.4" x2="786.1" y2="94.4"/>
			<line fill="none" stroke="#CCCCCC" stroke-miterlimit="10" stroke-dasharray="1,2" x1="167.9" y1="32.9" x2="786.1" y2="32.9"/>
		</g>
	</g>
</g>
<text transform="matrix(1 0 0 1 54.9765 369.4345)" fill="#333333" font-family="'CuratorRegular'" font-size="17px">1981</text>
<text transform="matrix(1 0 0 1 118.6857 369.4345)" fill="#333333" font-family="'CuratorRegular'" font-size="17px">1984</text>
<text transform="matrix(1 0 0 1 185.5468 369.4345)" fill="#333333" font-family="'CuratorRegular'" font-size="17px">1987</text>
<text transform="matrix(1 0 0 1 250.7076 369.4345)" fill="#333333" font-family="'CuratorRegular'" font-size="17px">1990</text>
<text transform="matrix(1 0 0 1 317.1693 369.4345)" fill="#333333" font-family="'CuratorRegular'" font-size="17px">1993</text>
<text transform="matrix(1 0 0 1 383.0274 369.4345)" fill="#333333" font-family="'CuratorRegular'" font-size="17px">1996</text>
<text transform="matrix(1 0 0 1 449.1238 369.4345)" fill="#333333" font-family="'CuratorRegular'" font-size="17px">1999</text>
<text transform="matrix(1 0 0 1 513.5708 369.4345)" fill="#333333" font-family="'CuratorRegular'" font-size="17px">2002</text>
<text transform="matrix(1 0 0 1 579.3952 369.4345)" fill="#333333" font-family="'CuratorRegular'" font-size="17px">2005</text>
<text transform="matrix(1 0 0 1 645.0663 369.4345)" fill="#333333" font-family="'CuratorRegular'" font-size="17px">2008</text>
<text transform="matrix(1 0 0 1 718.6776 369.4345)" fill="#333333" font-family="'CuratorRegular'" font-size="17px">2011</text>
<text transform="matrix(1 0 0 1 760.3088 369.4345)" fill="#333333" font-family="'CuratorRegular'" font-size="17px">2013</text>
<g>
	<circle opacity="0.6" fill="#EF4123" enable-background="new    " cx="70.9" cy="68.8" r="6.2"/>
	<circle opacity="0.6" fill="#EF4123" enable-background="new    " cx="70.9" cy="68.8" r="3.2"/>
</g>
<g>
	<g>
		<circle opacity="0.6" fill="#797979" enable-background="new    " cx="70.9" cy="211" r="6.2"/>
		<circle opacity="0.6" fill="#373737" enable-background="new    " cx="70.9" cy="211" r="3.2"/>
	</g>
</g>
<g>
	<g>
		<circle opacity="0.6" fill="#797979" enable-background="new    " cx="136.7" cy="220.8" r="6.2"/>
		<circle opacity="0.6" fill="#373737" enable-background="new    " cx="136.7" cy="220.8" r="3.2"/>
	</g>
</g>
<g>
	<g>
		<circle opacity="0.6" fill="#797979" enable-background="new    " cx="203" cy="233.8" r="6.2"/>
		<circle opacity="0.6" fill="#373737" enable-background="new    " cx="203" cy="233.8" r="3.2"/>
	</g>
</g>
<g>
	<g>
		<circle opacity="0.6" fill="#797979" enable-background="new    " cx="269" cy="233.3" r="6.2"/>
		<circle opacity="0.6" fill="#373737" enable-background="new    " cx="269" cy="233.3" r="3.2"/>
	</g>
</g>
<g>
	<g>
		<circle opacity="0.6" fill="#797979" enable-background="new    " cx="400.9" cy="252" r="6.2"/>
		<circle opacity="0.6" fill="#373737" enable-background="new    " cx="400.9" cy="252" r="3.2"/>
	</g>
</g>
<g>
	<g>
		<circle opacity="0.6" fill="#797979" enable-background="new    " cx="334.8" cy="237.7" r="6.2"/>
		<circle opacity="0.6" fill="#373737" enable-background="new    " cx="334.8" cy="237.7" r="3.2"/>
	</g>
</g>
<g>
	<g>
		<circle opacity="0.6" fill="#797979" enable-background="new    " cx="467.2" cy="254.2" r="6.2"/>
		<circle opacity="0.6" fill="#373737" enable-background="new    " cx="467.2" cy="254.2" r="3.2"/>
	</g>
</g>
<g>
	<g>
		<circle opacity="0.6" fill="#797979" enable-background="new    " cx="533.2" cy="262.5" r="6.2"/>
		<circle opacity="0.6" fill="#373737" enable-background="new    " cx="533.2" cy="262.5" r="3.2"/>
	</g>
</g>
<g>
	<g>
		<circle opacity="0.6" fill="#797979" enable-background="new    " cx="599" cy="276.5" r="6.2"/>
		<circle opacity="0.6" fill="#373737" enable-background="new    " cx="599" cy="276.5" r="3.2"/>
	</g>
</g>
<g>
	<g>
		<circle opacity="0.6" fill="#797979" enable-background="new    " cx="665" cy="285.2" r="6.2"/>
		<circle opacity="0.6" fill="#373737" enable-background="new    " cx="665" cy="285.2" r="3.2"/>
	</g>
</g>
<g>
	<g>
		<circle opacity="0.6" fill="#797979" enable-background="new    " cx="731.1" cy="298.8" r="6.2"/>
		<circle opacity="0.6" fill="#373737" enable-background="new    " cx="731.1" cy="298.8" r="3.2"/>
	</g>
</g>
<g>
	<g>
		<circle opacity="0.6" fill="#797979" enable-background="new    " cx="775.1" cy="306.5" r="6.2"/>
		<circle opacity="0.6" fill="#373737" enable-background="new    " cx="775.1" cy="306.5" r="3.2"/>
	</g>
</g>
<g>
	<circle opacity="0.6" fill="#EF4123" enable-background="new    " cx="136.7" cy="108.5" r="6.2"/>
	<circle opacity="0.6" fill="#EF4123" enable-background="new    " cx="136.7" cy="108.5" r="3.2"/>
</g>
<g>
	<circle opacity="0.6" fill="#EF4123" enable-background="new    " cx="203.7" cy="153.3" r="6.2"/>
	<circle opacity="0.6" fill="#EF4123" enable-background="new    " cx="203.7" cy="153.3" r="3.2"/>
</g>
<g>
	<circle opacity="0.6" fill="#EF4123" enable-background="new    " cx="268.8" cy="136.6" r="6.2"/>
	<circle opacity="0.6" fill="#EF4123" enable-background="new    " cx="268.8" cy="136.6" r="3.2"/>
</g>
<g>
	<circle opacity="0.6" fill="#EF4123" enable-background="new    " cx="334.8" cy="165.1" r="6.2"/>
	<circle opacity="0.6" fill="#EF4123" enable-background="new    " cx="334.8" cy="165.1" r="3.2"/>
</g>
<g>
	<circle opacity="0.6" fill="#EF4123" enable-background="new    " cx="400.9" cy="211" r="6.2"/>
	<circle opacity="0.6" fill="#EF4123" enable-background="new    " cx="400.9" cy="211" r="3.2"/>
</g>
<g>
	<circle opacity="0.6" fill="#EF4123" enable-background="new    " cx="466.9" cy="215.7" r="6.2"/>
	<circle opacity="0.6" fill="#EF4123" enable-background="new    " cx="466.9" cy="215.7" r="3.2"/>
</g>
<g>
	<circle opacity="0.6" fill="#EF4123" enable-background="new    " cx="533.2" cy="242.1" r="6.2"/>
	<circle opacity="0.6" fill="#EF4123" enable-background="new    " cx="533.2" cy="242.1" r="3.2"/>
</g>
<g>
	<circle opacity="0.6" fill="#EF4123" enable-background="new    " cx="599" cy="282.7" r="6.2"/>
	<circle opacity="0.6" fill="#EF4123" enable-background="new    " cx="599" cy="282.7" r="3.2"/>
</g>
<g>
	<circle opacity="0.6" fill="#EF4123" enable-background="new    " cx="665" cy="295.7" r="6.2"/>
	<circle opacity="0.6" fill="#EF4123" enable-background="new    " cx="665" cy="295.7" r="3.2"/>
</g>
<g>
	<circle opacity="0.6" fill="#EF4123" enable-background="new    " cx="731.1" cy="316" r="6.2"/>
	<circle opacity="0.6" fill="#EF4123" enable-background="new    " cx="731.1" cy="316" r="3.2"/>
</g>
<g>
	<circle opacity="0.6" fill="#EF4123" enable-background="new    " cx="775.1" cy="334.6" r="6.2"/>
	<circle opacity="0.6" fill="#EF4123" enable-background="new    " cx="775.1" cy="334.6" r="3.2"/>
</g>
<rect x="59.6" y="86" fill="#FFFFFF" width="54.9" height="16.3"/>
<g>
	<text transform="matrix(1 0 0 1 65.7305 100.7402)" fill="#EF4123" font-family="'CuratorRegular'" font-size="17px">China</text>
</g>
<text transform="matrix(1 0 0 1 63.5314 241.0586)" fill="#373737" font-family="'CuratorRegular'" font-size="17px">World  </text>
<text transform="matrix(1 0 0 1 63.5314 261.4586)" fill="#373737" font-family="'CuratorRegular'" font-size="17px">average</text>
<line fill="none" stroke="#EF4123" stroke-miterlimit="10" x1="70.9" y1="75" x2="70.9" y2="83.6"/>
<line fill="none" stroke="#373737" stroke-miterlimit="10" x1="70.9" y1="225.9" x2="70.9" y2="217.3"/>
<rect x="766.4" y="313.8" fill="#EF4123" width="26" height="14"/>
<rect x="762.8" y="285.2" fill="#373737" width="32.8" height="14"/>
<polygon fill="#373737" points="775.3,302.3 775.3,295.4 778.8,298.8 "/>
<polygon fill="#EF4123" points="775.3,330.6 775.3,323.6 778.8,327.1 "/>
<g>
	<text transform="matrix(1 0 0 1 766.7465 296.4765)" fill="#FFFFFF" font-family="'CuratorRegular'" font-size="12px">10.67</text>
</g>
<g>
	<text transform="matrix(1 0 0 1 769.4661 325.21)" fill="#FFFFFF" font-family="'CuratorRegular'" font-size="12px">1.85</text>
</g>
</svg>
