<svg version="1.1" id="Layer_1" xmlns="http://www.w3.org/2000/svg" xmlns:xlink="http://www.w3.org/1999/xlink" x="0px" y="0px"
	 width="350px" height="423px" viewBox="0 0 350 423" enable-background="new 0 0 350 423" xml:space="preserve">
<g>
	<line fill="none" stroke="#333333" stroke-miterlimit="10" x1="49.3" y1="335.3" x2="334.1" y2="335.3"/>
	<g>
		<g>
			<line fill="none" stroke="#333333" stroke-miterlimit="10" x1="53.7" y1="343" x2="53.7" y2="335.3"/>
			<line fill="none" stroke="#333333" stroke-miterlimit="10" x1="79.6" y1="343" x2="79.6" y2="335.3"/>
			<line fill="none" stroke="#333333" stroke-miterlimit="10" x1="105.5" y1="343" x2="105.5" y2="335.3"/>
			<line fill="none" stroke="#333333" stroke-miterlimit="10" x1="131.4" y1="343" x2="131.4" y2="335.3"/>
			<line fill="none" stroke="#333333" stroke-miterlimit="10" x1="157.3" y1="343" x2="157.3" y2="335.3"/>
			<line fill="none" stroke="#333333" stroke-miterlimit="10" x1="183.1" y1="343" x2="183.1" y2="335.3"/>
			<line fill="none" stroke="#333333" stroke-miterlimit="10" x1="209" y1="343" x2="209" y2="335.3"/>
			<line fill="none" stroke="#333333" stroke-miterlimit="10" x1="234.9" y1="343" x2="234.9" y2="335.3"/>
			<line fill="none" stroke="#333333" stroke-miterlimit="10" x1="260.8" y1="343" x2="260.8" y2="335.3"/>
			<line fill="none" stroke="#333333" stroke-miterlimit="10" x1="286.7" y1="343" x2="286.7" y2="335.3"/>
			<line fill="none" stroke="#333333" stroke-miterlimit="10" x1="311.6" y1="343" x2="311.6" y2="335.3"/>
			<line fill="none" stroke="#333333" stroke-miterlimit="10" x1="329.8" y1="343" x2="329.8" y2="335.3"/>
		</g>
	</g>
</g>
<g>
	<g>
		<g>
			<text transform="matrix(1 0 0 1 18.3501 334.4843)" fill="#797979" font-family="'CuratorRegular'" font-size="17.3453px">0</text>
			<text transform="matrix(1 0 0 1 9.2266 272.994)" fill="#797979" font-family="'CuratorRegular'" font-size="17.3453px">20</text>
			<text transform="matrix(1 0 0 1 8.0991 211.5038)" fill="#797979" font-family="'CuratorRegular'" font-size="17.3453px">40</text>
			<text transform="matrix(1 0 0 1 8.1685 150.0136)" fill="#797979" font-family="'CuratorRegular'" font-size="17.3453px">60</text>
			<text transform="matrix(1 0 0 1 8.0122 88.5233)" fill="#797979" font-family="'CuratorRegular'" font-size="17.3453px">80</text>
			<text transform="matrix(1 0 0 1 1.6465 27.0331)" fill="#797979" font-family="'CuratorRegular'" font-size="17.3453px">100</text>
			<text transform="matrix(1 0 0 1 34.4977 27.0331)" fill="#797979" font-family="'CuratorRegular'" font-size="17.3453px">% of population</text>
			<text transform="matrix(1 0 0 1 3.2446 406.0331)" fill="#797979" font-family="'CuratorRegular'" font-size="15px">SOURCE: WORLD BANK</text>
		</g>
	</g>
	<g>
		<g>
			<line fill="none" stroke="#CCCCCC" stroke-miterlimit="10" stroke-dasharray="1,2" x1="40.8" y1="273.8" x2="334.1" y2="273.8"/>
			<line fill="none" stroke="#CCCCCC" stroke-miterlimit="10" stroke-dasharray="1,2" x1="40.8" y1="212.3" x2="334.1" y2="212.3"/>
			<line fill="none" stroke="#CCCCCC" stroke-miterlimit="10" stroke-dasharray="1,2" x1="40.8" y1="150.9" x2="334.1" y2="150.9"/>
			<line fill="none" stroke="#CCCCCC" stroke-miterlimit="10" stroke-dasharray="1,2" x1="40.8" y1="89.4" x2="334.1" y2="89.4"/>
			<line fill="none" stroke="#CCCCCC" stroke-miterlimit="10" stroke-dasharray="1,2" x1="158.9" y1="27.9" x2="333.5" y2="27.9"/>
		</g>
	</g>
</g>
<g>
	<text transform="matrix(1 0 0 1 37.7671 364.4346)" fill="#333333" font-family="'CuratorRegular'" font-size="17px">1981</text>
</g>
<g>
	<text transform="matrix(1 0 0 1 88.1943 364.4346)" fill="#333333" font-family="'CuratorRegular'" font-size="17px">‘87</text>
</g>
<g>
	<text transform="matrix(1 0 0 1 139.5034 364.4346)" fill="#333333" font-family="'CuratorRegular'" font-size="17px">‘93</text>
</g>
<g>
	<text transform="matrix(1 0 0 1 191.1445 364.4346)" fill="#333333" font-family="'CuratorRegular'" font-size="17px">‘99</text>
</g>
<g>
	<text transform="matrix(1 0 0 1 241.103 364.4346)" fill="#333333" font-family="'CuratorRegular'" font-size="17px">‘05</text>
</g>
<g>
	<text transform="matrix(1 0 0 1 302.6688 364.4346)" fill="#333333" font-family="'CuratorRegular'" font-size="17px">‘11</text>
</g>
<g>
	<circle opacity="0.6" fill="#EF4123" enable-background="new    " cx="53.7" cy="63.8" r="6.2"/>
	<circle opacity="0.6" fill="#EF4123" enable-background="new    " cx="53.7" cy="63.8" r="3.2"/>
</g>
<g>
	<g>
		<circle opacity="0.6" fill="#797979" enable-background="new    " cx="53.7" cy="206" r="6.2"/>
		<circle opacity="0.6" fill="#373737" enable-background="new    " cx="53.7" cy="206" r="3.2"/>
	</g>
</g>
<g>
	<g>
		<circle opacity="0.6" fill="#797979" enable-background="new    " cx="79.5" cy="215.8" r="6.2"/>
		<circle opacity="0.6" fill="#373737" enable-background="new    " cx="79.5" cy="215.8" r="3.2"/>
	</g>
</g>
<g>
	<g>
		<ellipse opacity="0.6" fill="#797979" enable-background="new    " cx="105.3" cy="228.8" rx="5.9" ry="6.2"/>
		<ellipse opacity="0.6" fill="#373737" enable-background="new    " cx="105.3" cy="228.8" rx="3.1" ry="3.2"/>
	</g>
</g>
<g>
	<g>
		<ellipse opacity="0.6" fill="#797979" enable-background="new    " cx="131.5" cy="228.3" rx="6.1" ry="6.2"/>
		<ellipse opacity="0.6" fill="#373737" enable-background="new    " cx="131.5" cy="228.3" rx="3.2" ry="3.2"/>
	</g>
</g>
<g>
	<g>
		<circle opacity="0.6" fill="#797979" enable-background="new    " cx="183" cy="247" r="6.2"/>
		<circle opacity="0.6" fill="#373737" enable-background="new    " cx="183" cy="247" r="3.2"/>
	</g>
</g>
<g>
	<g>
		<circle opacity="0.6" fill="#797979" enable-background="new    " cx="157.1" cy="233.9" r="6.2"/>
		<circle opacity="0.6" fill="#373737" enable-background="new    " cx="157.1" cy="233.9" r="3.2"/>
	</g>
</g>
<g>
	<g>
		<ellipse opacity="0.6" fill="#797979" enable-background="new    " cx="209.1" cy="249.2" rx="6.1" ry="6.2"/>
		<ellipse opacity="0.6" fill="#373737" enable-background="new    " cx="209.1" cy="249.2" rx="3.2" ry="3.2"/>
	</g>
</g>
<g>
	<g>
		<circle opacity="0.6" fill="#797979" enable-background="new    " cx="234.9" cy="257.5" r="6.2"/>
		<circle opacity="0.6" fill="#373737" enable-background="new    " cx="234.9" cy="257.5" r="3.2"/>
	</g>
</g>
<g>
	<g>
		<circle opacity="0.6" fill="#797979" enable-background="new    " cx="260.7" cy="271.5" r="6.2"/>
		<circle opacity="0.6" fill="#373737" enable-background="new    " cx="260.7" cy="271.5" r="3.2"/>
	</g>
</g>
<g>
	<g>
		<circle opacity="0.6" fill="#797979" enable-background="new    " cx="286.6" cy="280.2" r="6.2"/>
		<circle opacity="0.6" fill="#373737" enable-background="new    " cx="286.6" cy="280.2" r="3.2"/>
	</g>
</g>
<g>
	<g>
		<circle opacity="0.6" fill="#797979" enable-background="new    " cx="311.6" cy="293.8" r="6.2"/>
		<circle opacity="0.6" fill="#373737" enable-background="new    " cx="311.6" cy="293.8" r="3.2"/>
	</g>
</g>
<g>
	<g>
		<circle opacity="0.6" fill="#797979" enable-background="new    " cx="329.7" cy="302.5" r="6.2"/>
		<circle opacity="0.6" fill="#373737" enable-background="new    " cx="329.7" cy="302.5" r="3.2"/>
	</g>
</g>
<g>
	<circle opacity="0.6" fill="#EF4123" enable-background="new    " cx="79.5" cy="103.5" r="6.2"/>
	<circle opacity="0.6" fill="#EF4123" enable-background="new    " cx="79.5" cy="103.5" r="3.2"/>
</g>
<g>
	<ellipse opacity="0.6" fill="#EF4123" enable-background="new    " cx="105.9" cy="148.3" rx="5.9" ry="6.2"/>
	<ellipse opacity="0.6" fill="#EF4123" enable-background="new    " cx="105.9" cy="148.3" rx="3.1" ry="3.2"/>
</g>
<g>
	<ellipse opacity="0.6" fill="#EF4123" enable-background="new    " cx="131.2" cy="131.6" rx="6.1" ry="6.2"/>
	<ellipse opacity="0.6" fill="#EF4123" enable-background="new    " cx="131.2" cy="131.6" rx="3.2" ry="3.2"/>
</g>
<g>
	<circle opacity="0.6" fill="#EF4123" enable-background="new    " cx="157.1" cy="161.2" r="6.2"/>
	<circle opacity="0.6" fill="#EF4123" enable-background="new    " cx="157.1" cy="161.2" r="3.2"/>
</g>
<g>
	<circle opacity="0.6" fill="#EF4123" enable-background="new    " cx="183" cy="206" r="6.2"/>
	<circle opacity="0.6" fill="#EF4123" enable-background="new    " cx="183" cy="206" r="3.2"/>
</g>
<g>
	<ellipse opacity="0.6" fill="#EF4123" enable-background="new    " cx="208.8" cy="210.7" rx="6.1" ry="6.2"/>
	<ellipse opacity="0.6" fill="#EF4123" enable-background="new    " cx="208.8" cy="210.7" rx="3.2" ry="3.2"/>
</g>
<g>
	<circle opacity="0.6" fill="#EF4123" enable-background="new    " cx="234.9" cy="237.1" r="6.2"/>
	<circle opacity="0.6" fill="#EF4123" enable-background="new    " cx="234.9" cy="237.1" r="3.2"/>
</g>
<g>
	<circle opacity="0.6" fill="#EF4123" enable-background="new    " cx="260.7" cy="277.7" r="6.2"/>
	<circle opacity="0.6" fill="#EF4123" enable-background="new    " cx="260.7" cy="277.7" r="3.2"/>
</g>
<g>
	<circle opacity="0.6" fill="#EF4123" enable-background="new    " cx="286.6" cy="290.7" r="6.2"/>
	<circle opacity="0.6" fill="#EF4123" enable-background="new    " cx="286.6" cy="290.7" r="3.2"/>
</g>
<g>
	<circle opacity="0.6" fill="#EF4123" enable-background="new    " cx="311.6" cy="311" r="6.2"/>
	<circle opacity="0.6" fill="#EF4123" enable-background="new    " cx="311.6" cy="311" r="3.2"/>
</g>
<g>
	<circle opacity="0.6" fill="#EF4123" enable-background="new    " cx="329.7" cy="329.6" r="6.2"/>
	<circle opacity="0.6" fill="#EF4123" enable-background="new    " cx="329.7" cy="329.6" r="3.2"/>
</g>
<rect x="49.3" y="81" fill="#FFFFFF" width="46" height="16.3"/>
<g>
	<text transform="matrix(1 0 0 1 49.9072 94.7402)" fill="#EF4123" font-family="'CuratorRegular'" font-size="17px">China</text>
</g>
<text transform="matrix(1 0 0 1 40.8029 242.6078)" fill="#373737" font-family="'CuratorRegular'" font-size="17px">World  </text>
<text transform="matrix(1 0 0 1 40.8029 263.0078)" fill="#373737" font-family="'CuratorRegular'" font-size="17px">average</text>
<line fill="none" stroke="#EF4123" stroke-miterlimit="10" x1="53.7" y1="70" x2="53.7" y2="78.6"/>
<line fill="none" stroke="#373737" stroke-miterlimit="10" x1="53.7" y1="227.4" x2="53.7" y2="212.3"/>
<g>
	<text transform="matrix(1 0 0 1 325.0275 364.4344)" fill="#333333" font-family="'CuratorRegular'" font-size="17px">‘13</text>
</g>
<rect x="322.4" y="310.1" fill="#EF4123" width="23.5" height="11.5"/>
<rect x="319.1" y="282.1" fill="#373737" width="29.6" height="11.5"/>
<polygon fill="#373737" points="330,297.1 330,290.2 333.5,293.6 "/>
<polygon fill="#EF4123" points="330,325.1 330,318.2 333.5,321.6 "/>
<g>
	<text transform="matrix(1 0 0 1 321.4348 291.8764)" fill="#FFFFFF" font-family="'CuratorRegular'" font-size="11.4174px">10.67</text>
</g>
<g>
	<text transform="matrix(1 0 0 1 324.1539 320.4904)" fill="#FFFFFF" font-family="'CuratorRegular'" font-size="11.4174px">1.85</text>
</g>
</svg>
